
************* 18-08-2021 11:58:43 *************
http://localhost:44762/giftcard/sendvoucherexpirationreminderemail
***********************************************

************* 18-08-2021 11:58:43 *************
Email schedular method Called and Set request parameter.
***********************************************

************* 18-08-2021 11:58:44 *************
Got Response Stream.
***********************************************

************* 18-08-2021 11:58:44 *************
read Response Stream.
***********************************************

************* 18-08-2021 11:58:44 *************
API Call Successfully.
***********************************************

************* 18-08-2021 11:58:44 *************
Sending Scheduler Activity Log.
***********************************************
